%YAML 1.1
%TAG !u! tag:unity3d.com,2011:
--- !u!1 &3305964259242348875
GameObject:
  m_ObjectHideFlags: 0
  m_CorrespondingSourceObject: {fileID: 0}
  m_PrefabInstance: {fileID: 0}
  m_PrefabAsset: {fileID: 0}
  serializedVersion: 6
  m_Component:
  - component: {fileID: 3431985108293579610}
  - component: {fileID: 7108608329012953546}
  m_Layer: 0
  m_Name: GameObject
  m_TagString: Untagged
  m_Icon: {fileID: 0}
  m_NavMeshLayer: 0
  m_StaticEditorFlags: 0
  m_IsActive: 1
--- !u!4 &3431985108293579610
Transform:
  m_ObjectHideFlags: 0
  m_CorrespondingSourceObject: {fileID: 0}
  m_PrefabInstance: {fileID: 0}
  m_PrefabAsset: {fileID: 0}
  m_GameObject: {fileID: 3305964259242348875}
  m_LocalRotation: {x: 0, y: 0, z: 0, w: 1}
  m_LocalPosition: {x: -2.8138866, y: 2, z: -1.9759178}
  m_LocalScale: {x: 1, y: 1, z: 1}
  m_Children: []
  m_Father: {fileID: 0}
  m_RootOrder: 0
  m_LocalEulerAnglesHint: {x: 0, y: 0, z: 0}
--- !u!114 &7108608329012953546
MonoBehaviour:
  m_ObjectHideFlags: 0
  m_CorrespondingSourceObject: {fileID: 0}
  m_PrefabInstance: {fileID: 0}
  m_PrefabAsset: {fileID: 0}
  m_GameObject: {fileID: 3305964259242348875}
  m_Enabled: 1
  m_EditorHideFlags: 0
  m_Script: {fileID: 11500000, guid: 5197c11e38ae9f24590f1eec16a27684, type: 3}
  m_Name: 
  m_EditorClassIdentifier: 
  queen: {fileID: 8194596019744701088, guid: d10be5b274d21f843ac6398c269f88fc, type: 3}
  follower: {fileID: -4143985103214642555, guid: a79163353775aba48801339f8edc777d,
    type: 3}
  ground: {fileID: 0}
  numQueens: 2
  numQueenless: 5
